^C:\USERS\ССВЕТА\SOURCE\REPOS\CONSOLEAPPLICATION2\CONSOLEAPPLICATION2\DEBUG\CONSOLEAPPLICATION2.OBJ
C:\USERS\ссвета\SOURCE\REPOS\CONSOLEAPPLICATION2\DEBUG\CONSOLEAPPLICATION2.EXE
C:\USERS\ссвета\SOURCE\REPOS\CONSOLEAPPLICATION2\DEBUG\CONSOLEAPPLICATION2.ILK
C:\USERS\ССВЕТА\SOURCE\REPOS\CONSOLEAPPLICATION2\DEBUG\CONSOLEAPPLICATION2.PDB
