^C:\USERS\ССВЕТА\SOURCE\REPOS\CONSOLEAPPLICATION1\CONSOLEAPPLICATION1\DEBUG\CONSOLEAPPLICATION1.OBJ
C:\USERS\ссвета\SOURCE\REPOS\CONSOLEAPPLICATION1\DEBUG\CONSOLEAPPLICATION1.ILK
C:\USERS\ссвета\SOURCE\REPOS\CONSOLEAPPLICATION1\DEBUG\CONSOLEAPPLICATION1.EXE
C:\USERS\ССВЕТА\SOURCE\REPOS\CONSOLEAPPLICATION1\DEBUG\CONSOLEAPPLICATION1.PDB
